

<svg xmlns="http://www.w3.org/2000/svg" fit="" height="100%" width="100%" preserveAspectRatio="xMidYMid meet" viewBox="0 0 24 24" style="pointer-events: none; display: block;">
	<!-- https://materialdesignicons.com/ -->
	<g id="alert">
		<path d="M13,14H11V10H13M13,18H11V16H13M1,21H23L12,2L1,21Z"></path>
	</g>

	<g id="alert-circle">
		<path d="M13,13H11V7H13M13,17H11V15H13M12,2A10,10 0 0,0 2,12A10,10 0 0,0 12,22A10,10 0 0,0 22,12A10,10 0 0,0 12,2Z"></path>
	</g>

	<g id="arrow-down">
  		<path d="M11,4H13V16L18.5,10.5L19.92,11.92L12,19.84L4.08,11.92L5.5,10.5L11,16V4Z" />
	</g>

	<g id="arrow-up">
  		<path d="M13,20H11V8L5.5,13.5L4.08,12.08L12,4.16L19.92,12.08L18.5,13.5L13,8V20Z" />
	</g>

	<g id="book-variant">
  		<path d="M6,4H11V12L8.5,10.5L6,12M18,2H6A2,2 0 0,0 4,4V20A2,2 0 0,0 6,22H18A2,2 0 0,0 20,20V4A2,2 0 0,0 18,2Z" />
	</g>

	<g id="checkbox-marked-outline">
		<path d="M19,19H5V5H15V3H5C3.89,3 3,3.89 3,5V19A2,2 0 0,0 5,21H19A2,2 0 0,0 21,19V11H19M7.91,10.08L6.5,11.5L11,16L21,6L19.59,4.58L11,13.17L7.91,10.08Z"></path>
	</g>

	<g id="content-copy">
		<path d="M19,21H8V7H19M19,5H8A2,2 0 0,0 6,7V21A2,2 0 0,0 8,23H19A2,2 0 0,0 21,21V7A2,2 0 0,0 19,5M16,1H4A2,2 0 0,0 2,3V17H4V3H16V1Z"></path>
	</g>

	<g id="content-cut">
		<path d="M19,3L13,9L15,11L22,4V3M12,12.5A0.5,0.5 0 0,1 11.5,12A0.5,0.5 0 0,1 12,11.5A0.5,0.5 0 0,1 12.5,12A0.5,0.5 0 0,1 12,12.5M6,20A2,2 0 0,1 4,18C4,16.89 4.9,16 6,16A2,2 0 0,1 8,18C8,19.11 7.1,20 6,20M6,8A2,2 0 0,1 4,6C4,4.89 4.9,4 6,4A2,2 0 0,1 8,6C8,7.11 7.1,8 6,8M9.64,7.64C9.87,7.14 10,6.59 10,6A4,4 0 0,0 6,2A4,4 0 0,0 2,6A4,4 0 0,0 6,10C6.59,10 7.14,9.87 7.64,9.64L10,12L7.64,14.36C7.14,14.13 6.59,14 6,14A4,4 0 0,0 2,18A4,4 0 0,0 6,22A4,4 0 0,0 10,18C10,17.41 9.87,16.86 9.64,16.36L12,14L19,21H22V20L9.64,7.64Z"></path>
	</g>

	<g id="content-paste">
		<path d="M19,20H5V4H7V7H17V4H19M12,2A1,1 0 0,1 13,3A1,1 0 0,1 12,4A1,1 0 0,1 11,3A1,1 0 0,1 12,2M19,2H14.82C14.4,0.84 13.3,0 12,0C10.7,0 9.6,0.84 9.18,2H5A2,2 0 0,0 3,4V20A2,2 0 0,0 5,22H19A2,2 0 0,0 21,20V4A2,2 0 0,0 19,2Z"></path>
	</g>

	<g id="delete">
		<path d="M19,4H15.5L14.5,3H9.5L8.5,4H5V6H19M6,19A2,2 0 0,0 8,21H16A2,2 0 0,0 18,19V7H6V19Z"></path>
	</g>

	<g id="file">
		<path d="M13,9V3.5L18.5,9M6,2C4.89,2 4,2.89 4,4V20A2,2 0 0,0 6,22H18A2,2 0 0,0 20,20V8L14,2H6Z"></path>
	</g>

	<g id="file-document-box">
		<path d="M14,17H7V15H14M17,13H7V11H17M17,9H7V7H17M19,3H5C3.89,3 3,3.89 3,5V19A2,2 0 0,0 5,21H19A2,2 0 0,0 21,19V5C21,3.89 20.1,3 19,3Z"></path>
	</g>

	<g id="file-export">
		<path d="M6,2C4.89,2 4,2.9 4,4V20A2,2 0 0,0 6,22H18A2,2 0 0,0 20,20V8L14,2M13,3.5L18.5,9H13M8.93,12.22H16V19.29L13.88,17.17L11.05,20L8.22,17.17L11.05,14.35"></path>
	</g>

	<g id="file-lock">
		<path d="M6,2C4.89,2 4,2.9 4,4V20A2,2 0 0,0 6,22H18A2,2 0 0,0 20,20V8L14,2H6M13,3.5L18.5,9H13V3.5M12,11A3,3 0 0,1 15,14V15H16V19H8V15H9V14C9,12.36 10.34,11 12,11M12,13A1,1 0 0,0 11,14V15H13V14C13,13.47 12.55,13 12,13Z"></path>
	</g>

	<g id="file-restore">
		<path d="M14,2H6A2,2 0 0,0 4,4V20A2,2 0 0,0 6,22H18A2,2 0 0,0 20,20V8L14,2M12,18C9.95,18 8.19,16.76 7.42,15H9.13C9.76,15.9 10.81,16.5 12,16.5A3.5,3.5 0 0,0 15.5,13A3.5,3.5 0 0,0 12,9.5C10.65,9.5 9.5,10.28 8.9,11.4L10.5,13H6.5V9L7.8,10.3C8.69,8.92 10.23,8 12,8A5,5 0 0,1 17,13A5,5 0 0,1 12,18Z"></path>
	</g>

	<g id="folder">
		<path d="M10,4H4C2.89,4 2,4.89 2,6V18A2,2 0 0,0 4,20H20A2,2 0 0,0 22,18V8C22,6.89 21.1,6 20,6H12L10,4Z"></path>
	</g>

	<g id="folder-lock">
		<path d="M20,6A2,2 0 0,1 22,8V18A2,2 0 0,1 20,20H4C2.89,20 2,19.1 2,18V6C2,4.89 2.89,4 4,4H10L12,6H20M19,17V13H18V12A3,3 0 0,0 15,9A3,3 0 0,0 12,12V13H11V17H19M15,11A1,1 0 0,1 16,12V13H14V12A1,1 0 0,1 15,11Z"></path>
	</g>


	<g id="google-circles">
		<path d="M16.66,15H17C18,15 19,14.8 19.87,14.46C19.17,18.73 15.47,22 11,22C6,22 2,17.97 2,13C2,8.53 5.27,4.83 9.54,4.13C9.2,5 9,6 9,7V7.34C6.68,8.16 5,10.38 5,13A6,6 0 0,0 11,19C13.62,19 15.84,17.32 16.66,15M17,10A3,3 0 0,0 20,7A3,3 0 0,0 17,4A3,3 0 0,0 14,7A3,3 0 0,0 17,10M17,1A6,6 0 0,1 23,7A6,6 0 0,1 17,13A6,6 0 0,1 11,7C11,3.68 13.69,1 17,1Z"></path>
	</g>

	<g id="keyboard-backspace">
  		<path d="M21,11H6.83L10.41,7.41L9,6L3,12L9,18L10.41,16.58L6.83,13H21V11Z" />
	</g>

	<g id="library_books">
  		<path d="M19,7H9V5H19M15,15H9V13H15M19,11H9V9H19M20,2H8A2,2 0 0,0 6,4V16A2,2 0 0,0 8,18H20A2,2 0 0,0 22,16V4A2,2 0 0,0 20,2M4,6H2V20A2,2 0 0,0 4,22H18V20H4V6Z" />
	</g>

	<g id="menu-right">
  		<path d="M10,17L15,12L10,7V17Z" />
	</g>

	<g id="menu-down">
  		<path d="M7,10L12,15L17,10H7Z" />
	</g>

	<g id="poll">
		<path d="M3,22V8H7V22H3M10,22V2H14V22H10M17,22V14H21V22H17Z"></path>
	</g>

	<g id="rename-box">
		<path d="M18,17H10.5L12.5,15H18M6,17V14.5L13.88,6.65C14.07,6.45 14.39,6.45 14.59,6.65L16.35,8.41C16.55,8.61 16.55,8.92 16.35,9.12L8.47,17M19,3H5C3.89,3 3,3.89 3,5V19A2,2 0 0,0 5,21H19A2,2 0 0,0 21,19V5C21,3.89 20.1,3 19,3Z"></path>
	</g>

	<g id="settings">
		<path d="M12,15.5A3.5,3.5 0 0,1 8.5,12A3.5,3.5 0 0,1 12,8.5A3.5,3.5 0 0,1 15.5,12A3.5,3.5 0 0,1 12,15.5M19.43,12.97C19.47,12.65 19.5,12.33 19.5,12C19.5,11.67 19.47,11.34 19.43,11L21.54,9.37C21.73,9.22 21.78,8.95 21.66,8.73L19.66,5.27C19.54,5.05 19.27,4.96 19.05,5.05L16.56,6.05C16.04,5.66 15.5,5.32 14.87,5.07L14.5,2.42C14.46,2.18 14.25,2 14,2H10C9.75,2 9.54,2.18 9.5,2.42L9.13,5.07C8.5,5.32 7.96,5.66 7.44,6.05L4.95,5.05C4.73,4.96 4.46,5.05 4.34,5.27L2.34,8.73C2.21,8.95 2.27,9.22 2.46,9.37L4.57,11C4.53,11.34 4.5,11.67 4.5,12C4.5,12.33 4.53,12.65 4.57,12.97L2.46,14.63C2.27,14.78 2.21,15.05 2.34,15.27L4.34,18.73C4.46,18.95 4.73,19.03 4.95,18.95L7.44,17.94C7.96,18.34 8.5,18.68 9.13,18.93L9.5,21.58C9.54,21.82 9.75,22 10,22H14C14.25,22 14.46,21.82 14.5,21.58L14.87,18.93C15.5,18.67 16.04,18.34 16.56,17.94L19.05,18.95C19.27,19.03 19.54,18.95 19.66,18.73L21.66,15.27C21.78,15.05 21.73,14.78 21.54,14.63L19.43,12.97Z" />
	</g>

	<g id="swap-horizontal">
		<path d="M21,9L17,5V8H10V10H17V13M7,11L3,15L7,19V16H14V14H7V11Z" />
	</g>

	<g id="view-day">
		<path d="M2,3V6H21V3M20,8H3A1,1 0 0,0 2,9V15A1,1 0 0,0 3,16H20A1,1 0 0,0 21,15V9A1,1 0 0,0 20,8M2,21H21V18H2V21Z"></path>
	</g>

	<g id="file-download">
		<path d="M19 9h-4V3H9v6H5l7 7 7-7zM5 18v2h14v-2H5z"></path>
	</g>

	<g id="upload-file">
		<path d="M9 16h6v-6h4l-7-7-7 7h4zm-4 2h14v2H5z"></path>
	</g>
	
	<!-- https://design.google.com/icons/ -->
	<g id="graphic_eq">
		<path d="M7 18h2V6H7v12zm4 4h2V2h-2v20zm-8-8h2v-4H3v4zm12 4h2V6h-2v12zm4-8v4h2v-4h-2z"></path>
	</g>

	<g id="widgets">
		<path d="M13 13v8h8v-8h-8zM3 21h8v-8H3v8zM3 3v8h8V3H3zm13.66-1.31L11 7.34 16.66 13l5.66-5.66-5.66-5.65z"></path>
	</g>


</svg>

</svg>
